examples/wave_vpi/test.vcd
$date
	Mon Sep 30 09:38:43 2024
$end
$version
	Icarus Verilog
$end
$timescale
	1s
$end
$scope module tb_top $end
$var wire 8 ! count [7:0] $end
$var reg 1 " clock $end
$var reg 64 # cycles [63:0] $end
$var reg 1 $ reset $end
$var reg 1 % simulation_disableTrace $end
$var reg 1 & simulation_disableTrace_latch $end
$var reg 1 ' simulation_enableTrace $end
$var reg 1 ( simulation_enableTrace_latch $end
$var reg 1 ) simulation_initializeTrace $end
$var reg 1 * simulation_initializeTrace_latch $end
$scope module u_Counter $end
$var wire 1 " clock $end
$var wire 8 + count [7:0] $end
$var wire 1 $ reset $end
$var reg 8 , count_reg [7:0] $end
$upscope $end
$scope module u_others $end
$var wire 1 " clock $end
$var wire 1 $ reset $end
$upscope $end
$scope begin $unm_blk_11 $end
$var integer 32 - file [31:0] $end
$upscope $end
$upscope $end
$enddefinitions $end
$comment Show the parameter values. $end
$dumpall
$end
#5
$dumpvars
b10000000000000000000000000000011 -
b0 ,
b0 +
1*
1)
1(
1'
0&
0%
1$
b0 #
1"
b0 !
$end
#10
0"
#15
1"
#20
0"
#25
1"
#30
0"
#35
1"
#40
0"
#45
1"
#50
0"
#55
1"
#60
0"
#65
1"
#70
0"
#75
1"
#80
0"
#85
1"
#90
0"
#95
b1 #
b1 !
b1 +
b1 ,
1"
0$
#100
0"
#105
b10 !
b10 +
b10 ,
b10 #
1"
#110
0"
#115
b11 #
b11 !
b11 +
b11 ,
1"
#120
0"
#125
b100 !
b100 +
b100 ,
b100 #
1"
#130
0"
#135
b101 #
b101 !
b101 +
b101 ,
1"
#140
0"
#145
b110 !
b110 +
b110 ,
b110 #
1"
#150
0"
#155
b111 #
b111 !
b111 +
b111 ,
1"
#160
0"
#165
b1000 !
b1000 +
b1000 ,
b1000 #
1"
#170
0"
#175
b1001 #
b1001 !
b1001 +
b1001 ,
1"
#180
0"
#185
b1010 !
b1010 +
b1010 ,
b1010 #
1"
#190
0"
#195
b1011 #
b0 !
b0 +
b0 ,
1"
#200
0"
#205
b1 !
b1 +
b1 ,
b1100 #
1"
#210
0"
#215
b1101 #
b10 !
b10 +
b10 ,
1"
#220
0"
#225
b11 !
b11 +
b11 ,
b1110 #
1"
#230
0"
#235
b1111 #
b100 !
b100 +
b100 ,
1"
#240
0"
#245
b101 !
b101 +
b101 ,
b10000 #
1"
#250
0"
#255
b10001 #
b110 !
b110 +
b110 ,
1"
#260
0"
#265
b111 !
b111 +
b111 ,
b10010 #
1"
#270
0"
#275
b10011 #
b1000 !
b1000 +
b1000 ,
1"
#280
0"
#285
b1001 !
b1001 +
b1001 ,
b10100 #
1"
#290
0"
#295
b10101 #
b1010 !
b1010 +
b1010 ,
1"
#300
0"
#305
b0 !
b0 +
b0 ,
b10110 #
1"
#310
0"
#315
b10111 #
b1 !
b1 +
b1 ,
1"
#320
0"
#325
b10 !
b10 +
b10 ,
b11000 #
1"
#330
0"
#335
b11001 #
b11 !
b11 +
b11 ,
1"
#340
0"
#345
b100 !
b100 +
b100 ,
b11010 #
1"
#350
0"
#355
b11011 #
b101 !
b101 +
b101 ,
1"
#360
0"
#365
b110 !
b110 +
b110 ,
b11100 #
1"
#370
0"
#375
b11101 #
b111 !
b111 +
b111 ,
1"
#380
0"
#385
b1000 !
b1000 +
b1000 ,
b11110 #
1"
#390
0"
#395
b11111 #
b1001 !
b1001 +
b1001 ,
1"
#400
0"
#405
b1010 !
b1010 +
b1010 ,
b100000 #
1"
#410
0"
#415
b100001 #
b0 !
b0 +
b0 ,
1"
#420
0"
#425
b1 !
b1 +
b1 ,
b100010 #
1"
#430
0"
#435
b100011 #
b10 !
b10 +
b10 ,
1"
#440
0"
#445
b11 !
b11 +
b11 ,
b100100 #
1"
#450
0"
#455
b100101 #
b100 !
b100 +
b100 ,
1"
#460
0"
#465
b101 !
b101 +
b101 ,
b100110 #
1"
#470
0"
#475
b100111 #
b110 !
b110 +
b110 ,
1"
#480
0"
#485
b111 !
b111 +
b111 ,
b101000 #
1"
#490
0"
#495
b101001 #
b1000 !
b1000 +
b1000 ,
1"
#500
0"
#505
b1001 !
b1001 +
b1001 ,
b101010 #
1"
#510
0"
#515
b101011 #
b1010 !
b1010 +
b1010 ,
1"
#520
0"
#525
b0 !
b0 +
b0 ,
b101100 #
1"
#530
0"
#535
b101101 #
b1 !
b1 +
b1 ,
1"
#540
0"
#545
b10 !
b10 +
b10 ,
b101110 #
1"
#550
0"
#555
b101111 #
b11 !
b11 +
b11 ,
1"
#560
0"
#565
b100 !
b100 +
b100 ,
b110000 #
1"
#570
0"
#575
b110001 #
b101 !
b101 +
b101 ,
1"
#580
0"
#585
b110 !
b110 +
b110 ,
b110010 #
1"
#590
0"
#595
b110011 #
b111 !
b111 +
b111 ,
1"
#600
0"
#605
b1000 !
b1000 +
b1000 ,
b110100 #
1"
#610
0"
#615
b110101 #
b1001 !
b1001 +
b1001 ,
1"
#620
0"
#625
b1010 !
b1010 +
b1010 ,
b110110 #
1"
#630
0"
#635
b110111 #
b0 !
b0 +
b0 ,
1"
#640
0"
#645
b1 !
b1 +
b1 ,
b111000 #
1"
#650
0"
#655
b111001 #
b10 !
b10 +
b10 ,
1"
#660
0"
#665
b11 !
b11 +
b11 ,
b111010 #
1"
#670
0"
#675
b111011 #
b100 !
b100 +
b100 ,
1"
#680
0"
#685
b101 !
b101 +
b101 ,
b111100 #
1"
#690
0"
#695
b111101 #
b110 !
b110 +
b110 ,
1"
#700
0"
#705
b111 !
b111 +
b111 ,
b111110 #
1"
#710
0"
#715
b111111 #
b1000 !
b1000 +
b1000 ,
1"
#720
0"
#725
b1001 !
b1001 +
b1001 ,
b1000000 #
1"
#730
0"
#735
b1000001 #
b1010 !
b1010 +
b1010 ,
1"
#740
0"
#745
b0 !
b0 +
b0 ,
b1000010 #
1"
#750
0"
#755
b1000011 #
b1 !
b1 +
b1 ,
1"
#760
0"
#765
b10 !
b10 +
b10 ,
b1000100 #
1"
#770
0"
#775
b1000101 #
b11 !
b11 +
b11 ,
1"
#780
0"
#785
b100 !
b100 +
b100 ,
b1000110 #
1"
#790
0"
#795
b1000111 #
b101 !
b101 +
b101 ,
1"
#800
0"
#805
b110 !
b110 +
b110 ,
b1001000 #
1"
#810
0"
#815
b1001001 #
b111 !
b111 +
b111 ,
1"
#820
0"
#825
b1000 !
b1000 +
b1000 ,
b1001010 #
1"
#830
0"
#835
b1001011 #
b1001 !
b1001 +
b1001 ,
1"
#840
0"
#845
b1010 !
b1010 +
b1010 ,
b1001100 #
1"
#850
0"
#855
b1001101 #
b0 !
b0 +
b0 ,
1"
#860
0"
#865
b1 !
b1 +
b1 ,
b1001110 #
1"
#870
0"
#875
b1001111 #
b10 !
b10 +
b10 ,
1"
#880
0"
#885
b11 !
b11 +
b11 ,
b1010000 #
1"
#890
0"
#895
b1010001 #
b100 !
b100 +
b100 ,
1"
#900
0"
#905
b101 !
b101 +
b101 ,
b1010010 #
1"
#910
0"
#915
b1010011 #
b110 !
b110 +
b110 ,
1"
#920
0"
#925
b111 !
b111 +
b111 ,
b1010100 #
1"
#930
0"
#935
b1010101 #
b1000 !
b1000 +
b1000 ,
1"
#940
0"
#945
b1001 !
b1001 +
b1001 ,
b1010110 #
1"
#950
0"
#955
b1010111 #
b1010 !
b1010 +
b1010 ,
1"
#960
0"
#965
b0 !
b0 +
b0 ,
b1011000 #
1"
#970
0"
#975
b1011001 #
b1 !
b1 +
b1 ,
1"
#980
0"
#985
b10 !
b10 +
b10 ,
b1011010 #
1"
#990
0"
#995
b1011011 #
b11 !
b11 +
b11 ,
1"
#1000
0"
#1005
b100 !
b100 +
b100 ,
b1011100 #
1"
#1010
0"
#1015
b1011101 #
b101 !
b101 +
b101 ,
1"
#1020
0"
#1025
b110 !
b110 +
b110 ,
b1011110 #
1"
#1030
0"
#1035
b1011111 #
b111 !
b111 +
b111 ,
1"
#1040
0"
#1045
b1000 !
b1000 +
b1000 ,
b1100000 #
1"
#1050
0"
#1055
b1100001 #
b1001 !
b1001 +
b1001 ,
1"
#1060
0"
#1065
b1010 !
b1010 +
b1010 ,
b1100010 #
1"
#1070
0"
#1075
b1100011 #
b0 !
b0 +
b0 ,
1"
#1080
0"
#1085
b1 !
b1 +
b1 ,
b1100100 #
1"
#1090
0"
#1095
b1100101 #
b10 !
b10 +
b10 ,
1"
